{
  "title": "Not Implemented",
  "description": "This page is in progress.",
  "published": true,
  "body": {
    "raw": "\n<Callout>\n\nThis site is a work in progress. If you see dummy text on a page, it means I'm still working on it. You can follow updates on Twitter [@shadcn](https://twitter.com/shadcn).\n\n</Callout>\n",
    "code": "var Component=(()=>{var p=Object.create;var s=Object.defineProperty;var u=Object.getOwnPropertyDescriptor;var l=Object.getOwnPropertyNames;var f=Object.getPrototypeOf,x=Object.prototype.hasOwnProperty;var h=(e,t)=>()=>(t||e((t={exports:{}}).exports,t),t.exports),_=(e,t)=>{for(var n in t)s(e,n,{get:t[n],enumerable:!0})},c=(e,t,n,i)=>{if(t&&typeof t==\"object\"||typeof t==\"function\")for(let r of l(t))!x.call(e,r)&&r!==n&&s(e,r,{get:()=>t[r],enumerable:!(i=u(t,r))||i.enumerable});return e};var b=(e,t,n)=>(n=e!=null?p(f(e)):{},c(t||!e||!e.__esModule?s(n,\"default\",{value:e,enumerable:!0}):n,e)),g=e=>c(s({},\"__esModule\",{value:!0}),e);var a=h((k,d)=>{d.exports=_jsx_runtime});var I={};_(I,{default:()=>y,frontmatter:()=>j});var o=b(a()),j={title:\"Not Implemented\",description:\"This page is in progress.\"};function m(e){let t=Object.assign({p:\"p\",a:\"a\"},e.components),{Callout:n}=t;return n||C(\"Callout\",!0,\"6:1-10:11\"),(0,o.jsx)(n,{children:(0,o.jsxs)(t.p,{children:[\"This site is a work in progress. If you see dummy text on a page, it means I'm still working on it. You can follow updates on Twitter \",(0,o.jsx)(t.a,{href:\"https://twitter.com/shadcn\",children:\"@shadcn\"}),\".\"]})})}function w(e={}){let{wrapper:t}=e.components||{};return t?(0,o.jsx)(t,Object.assign({},e,{children:(0,o.jsx)(m,e)})):m(e)}var y=w;function C(e,t,n){throw new Error(\"Expected \"+(t?\"component\":\"object\")+\" `\"+e+\"` to be defined: you likely forgot to import, pass, or provide it.\"+(n?\"\\nIt\\u2019s referenced in your code at `\"+n+\"` in `/Users/dima/myprojects/redemption/content/docs/_mdx_bundler_entry_point-3723511b-6f3b-4296-89eb-2101d1c411bf.mdx`\":\"\"))}return g(I);})();\n;return Component;"
  },
  "_id": "docs/in-progress.mdx",
  "_raw": {
    "sourceFilePath": "docs/in-progress.mdx",
    "sourceFileName": "in-progress.mdx",
    "sourceFileDir": "docs",
    "contentType": "mdx",
    "flattenedPath": "docs/in-progress"
  },
  "type": "Doc",
  "slug": "/docs/in-progress",
  "slugAsParams": "in-progress"
}